<?xml version="1.0" standalone="no"?>
<!DOCTYPE svg PUBLIC "-//W3C//DTD SVG 1.1//EN" "http://www.w3.org/Graphics/SVG/1.1/DTD/svg11.dtd" >
<svg xmlns="http://www.w3.org/2000/svg">
<metadata>Generated by IcoMoon</metadata>
<defs>
<font id="icomoon" horiz-adv-x="1024">
<font-face units-per-em="1024" ascent="960" descent="-64" />
<missing-glyph horiz-adv-x="1024" />
<glyph unicode="&#x20;" d="" horiz-adv-x="512" />
<glyph unicode="&#xe600;" d="M13.46 447.482c0 270.237 218.467 487.668 490.775 487.668 270.237 0 486.633-219.503 486.633-493.881 0-267.13-221.573-484.562-492.845-484.562-267.13 1.035-484.562 221.573-484.562 490.775zM605.703 236.263c35.203 10.354 44.522 20.708 45.557 51.769 2.071 63.159 2.071 126.317 3.106 189.476 0 41.416-33.132 76.619-74.548 77.654-100.433 2.071-200.866 3.106-300.263 3.106-42.451 0-76.619-34.168-77.654-76.619-1.035-52.805-2.071-105.61-2.071-157.379 0-48.663 33.132-82.831 81.796-82.831 60.053-1.035 120.105-1.035 180.158-2.071 7.248 0 15.531-3.106 20.708-8.283 39.345-34.168 77.654-69.371 118.034-102.504 5.177-4.142 13.46-7.248 19.672-7.248 12.425 1.035 18.637 13.46 14.495 26.92-10.354 28.991-19.672 57.982-28.991 88.008zM686.463 353.262c57.982 1.035 106.645 48.663 107.68 104.574 1.035 47.628 1.035 94.22 0 141.848-1.035 56.946-50.734 105.61-107.68 105.61-82.831 0-165.662 0-248.493 0-12.425 0-24.849-2.071-36.239-6.212-44.522-16.566-76.619-65.23-70.406-106.645 14.495 0 27.956 0 42.451 0 1.035 2.071 2.071 3.106 2.071 5.177 7.248 43.486 30.026 63.159 74.548 63.159 76.619 0 153.238 0 228.821 0 38.309 0 66.265-26.92 66.265-65.23 0-44.522 0-88.008 0-132.53 0-25.885-12.425-49.699-37.274-55.911-26.92-6.212-22.779-22.779-22.779-40.38 1.035-4.142 1.035-8.283 1.035-13.46zM426.58 420.562c-36.239 0-72.477 0-108.716 0-16.566 0-26.92 8.283-26.92 21.743 0 12.425 10.354 21.743 26.92 21.743 72.477 0 144.954 0 217.432 0 17.602 0 25.885-8.283 26.92-21.743 0-13.46-9.319-21.743-25.885-21.743-37.274 0-73.513 0-109.751 0zM426.58 331.519c-36.239 0-72.477 0-108.716 0-16.566 0-26.92 8.283-26.92 21.743 0 12.425 10.354 21.743 26.92 21.743 72.477 0 144.954 0 217.432 0 17.602 0 25.885-8.283 26.92-21.743 0-13.46-9.319-21.743-27.956-21.743-36.239 0-72.477 0-107.68 0z" horiz-adv-x="994" />
<glyph unicode="&#xe601;" d="M6.212 448.518c0 272.307 219.503 490.775 493.881 490.775 270.237 0 487.668-221.573 487.668-494.916 0-269.201-221.573-487.668-493.881-486.633-269.201 0-487.668 220.538-487.668 490.775zM488.704 171.033c2.071 4.142 3.106 6.212 4.142 8.283 44.522 56.946 84.902 118.034 115.964 184.299 26.92 57.982 48.663 118.034 47.628 183.264-1.035 67.3-39.345 127.353-102.504 153.238-67.3 25.885-129.424 15.531-182.229-33.132-53.84-49.699-61.088-112.857-46.593-180.158 24.849-119.070 89.043-217.432 163.592-315.794zM386.2 543.774c0 56.946 44.522 103.539 101.468 103.539s102.504-45.557 102.504-102.504c0-56.946-45.557-103.539-101.468-103.539-56.946 0-102.504 45.557-102.504 102.504zM487.668 479.579c36.239 0 65.23 28.991 66.265 64.194 0 36.239-27.956 65.23-65.23 65.23s-66.265-28.991-66.265-65.23c0-36.239 28.991-64.194 65.23-64.194z" horiz-adv-x="994" />
</font></defs></svg>